{
  "eventKey": "repo:refs_changed",
  "date": "2019-08-18T15:58:54+0000",
  "actor": {
    "name": "carolina ",
    "emailAddress": "carolitagzr@gmail.com",
    "id": 1,
    "displayName": "CArolinaGR",
    "active": true,
    "slug": "CArolinaGR",
    "type": "NORMAL",
    "links": { "self": [{ "href": "https://gitlab.com//users/carolinagzr/" }] }
  },
  "repository": {
    "slug": "proyecto-ejemplo-webhook",
    "id": 1,
    "name": "proyecto-ejemplo-webhook",
    "scmId": "git",
    "state": "AVAILABLE",
    "statusMessage": "Available",
    "forkable": true,
    "project": {
      "key": "",
      "id": 1,
      "name": "Mixed",
      "public": false,
      "type": "NORMAL",
      "links": { "self": [{ "href": "https://gitlab.com/carolinagzr/proyecto-ejemplo-webhook.git" }] }
    },
    "public": false,
    "links": {
      "clone": [
        {
          "href": "https://gitlab.com/carolinagzr/proyecto-ejemplo-webhook.git",
          "name": "https"
        },
        {
          
        }
      ],
      "self": [
        {
          "href": "https://gitlab.com/carolinagzr/proyecto-ejemplo-webhook/browse"
        }
      ]
    }
  },
  "changes": [
    {
      "ref": { "id": "refs/tags/1.2", "displayId": "1.2", "type": "TAG" },
      "refId": "refs/tags/1.2",
      "fromHash": "0000000000000000000000000000000000000000",
      "toHash": "187ccb978925d6ccdf948a58bccaf878cce046b9",
      "type": "ADD"
    }
  ]
}
